<svg xmlns="http://www.w3.org/2000/svg" viewBox="0 0 512.001 512.001" style="enable-background:new 0 0 512.001 512.001" xml:space="preserve">
  <path style="fill:#f9a926" d="M328.931 212.426a16.774 16.774 0 0 1-6.673-16.408l9.808-57.184-41.546-40.499a16.773 16.773 0 0 1-4.244-17.197 16.77 16.77 0 0 1 13.542-11.416l57.416-8.343L382.91 9.35a16.775 16.775 0 0 1 30.085 0l25.677 52.029 57.416 8.343a16.775 16.775 0 0 1 9.298 28.613l-41.546 40.498 9.808 57.184a16.776 16.776 0 0 1-24.339 17.685l-51.355-27-51.354 27a16.78 16.78 0 0 1-17.669-1.276z"/>
	<path style="fill:#ffc033" d="M500.364 299.325a16.783 16.783 0 0 0-19.873 1.879c-.57.514-1.141 1.018-1.711 1.51-35.955 31.537-80.666 47.149-125.277 47.149-33.517 0-66.966-8.813-96.602-26.359a45.082 45.082 0 0 1-1.431-.839c-12.917-7.784-25.084-17.245-36.19-28.35-71.317-71.328-74.347-186.058-6.889-261.211 4.921-5.491 5.692-13.554 1.879-19.873s-11.306-9.394-18.464-7.594C150.67 17 109.571 40.261 76.949 72.895c-100.539 100.528-100.528 263.235 0 363.752 49.397 49.408 113.836 74.493 178.521 75.331 66.955.872 134.167-24.257 185.231-75.331 32.633-32.622 55.884-73.721 67.257-118.857a16.78 16.78 0 0 0-7.594-18.465z"/>
	<path style="fill:#f9a926" d="M507.958 317.79c-11.374 45.136-34.624 86.235-67.257 118.857-51.063 51.075-118.276 76.204-185.231 75.331V322.666c.481.291.951.57 1.431.839 29.636 17.547 63.086 26.359 96.602 26.359 44.611 0 89.322-15.612 125.277-47.149.57-.492 1.141-.995 1.711-1.51a16.785 16.785 0 0 1 19.873-1.879 16.778 16.778 0 0 1 7.594 18.464z"/>
</svg>